Project Report Draft
…
merged_wfls = 
  left_join(cleaned_wfls, zipcodes, by = "zipcode")

write.csv(merged_wfls, "./data/merged_wfls.csv")

Exploratory Anlaysis

Leave and Race

merged_wfls

## # A tibble: 1,063 x 56
##       X1   ph1  bc1a   bc1   bc2   bc3  pph1 pph2a pph2b pph2c   el1   el9  el11
##    <dbl> <dbl> <dbl> <dbl> <dbl> <dbl> <dbl> <dbl> <dbl> <dbl> <dbl> <dbl> <dbl>
##  1     1     2     7     1     1     3     1    NA    NA    NA     1     1     1
##  2     2     2     2     1     2     3     1    NA    NA    NA     1     1     3
##  3     3     3     9     1     1     2     1    NA    NA    NA     2    NA    NA
##  4     4     1    10     1     2     4     1    NA    NA    NA     1     1     1
##  5     5     4     7     1     1     2     1    NA    NA    NA     2    NA    NA
##  6     6     2     6     1     1     4     1    NA    NA    NA     1     2     1
##  7     7     1     6     1     1     2     1    NA    NA    NA     1     2     2
##  8     8     1     3     1     2     3     1    NA    NA    NA     1     1     1
##  9     9     3     2     1     2     3     1    NA    NA    NA     1     1     2
## 10    10     1    11     1     1     2     1    NA    NA    NA     1     2     4
## # … with 1,053 more rows, and 43 more variables: el13a <dbl>, el13b <dbl>,
## #   el13c <dbl>, el13d <dbl>, el13e <dbl>, el14 <dbl>, el15 <dbl>, el16 <dbl>,
## #   el17a <dbl>, el17b <dbl>, el17c <dbl>, el17d <dbl>, el17e <dbl>,
## #   el17f <dbl>, ih1 <dbl>, mh4 <dbl>, es1a <dbl>, es1b <dbl>, es2 <dbl>,
## #   es3 <dbl>, SAMP_WEIGHT <dbl>, POP_WEIGHT <dbl>, leave_type <chr>,
## #   leave_weeks <dbl>, ulw_recode <dbl>, unpaid_leave_weeks <dbl>,
## #   pct_unpaid <dbl>, partner <chr>, education <chr>, race <chr>,
## #   job_type <chr>, unemploy_reason <chr>, food_insecurity <dbl>,
## #   family_income <chr>, zipcode <chr>, d4_2 <dbl>, bf1_1 <chr>, d7 <dbl>,
…
