Spatial Analysis & Regression
…
modelr::add_residuals(linear_df, merged.lm)

## # A tibble: 1,063 x 22
##       X1  X1_1   es3 SAMP_WEIGHT POP_WEIGHT leave_type leave_weeks ulw_recode
##    <dbl> <dbl> <dbl>       <dbl>      <dbl> <chr>            <dbl>      <dbl>
##  1     1     1    77       0.711       72.5 Paid                 8         NA
##  2     2     2    12       1.35       138.  Both                 4         NA
##  3     3     3     1       1.76       179.  <NA>                NA         NA
##  4     4     4     1       2.41       245.  Paid                 1         NA
##  5     5     5    77       1.08       110.  <NA>                NA         NA
##  6     6     6     2       0.531       54.2 Paid                 4         NA
##  7     7     7    99       0.793       80.9 Unpaid              12         12
##  8     8     8    12       1.17       119.  Paid                 8         NA
##  9     9     9     9       0.455       46.4 Unpaid              11         11
## 10    10    10     1       1.70       173.  Did not t…          NA         NA
## # … with 1,053 more rows, and 14 more variables: unpaid_leave_weeks <dbl>,
## #   pct_unpaid <dbl>, partner <chr>, education <chr>, race <chr>,
## #   job_type <chr>, unemploy_reason <chr>, food_insecurity <dbl>,
## #   family_income <chr>, zipcode <chr>, postpartum_check <chr>, borough <chr>,
## #   neighborhood <chr>, resid <dbl>

modelr::add_predictions(linear_df, merged.lm)

## # A tibble: 1,063 x 22
##       X1  X1_1   es3 SAMP_WEIGHT POP_WEIGHT leave_type leave_weeks ulw_recode
##    <dbl> <dbl> <dbl>       <dbl>      <dbl> <chr>            <dbl>      <dbl>
##  1     1     1    77       0.711       72.5 Paid                 8         NA
##  2     2     2    12       1.35       138.  Both                 4         NA
##  3     3     3     1       1.76       179.  <NA>                NA         NA
##  4     4     4     1       2.41       245.  Paid                 1         NA
##  5     5     5    77       1.08       110.  <NA>                NA         NA
##  6     6     6     2       0.531       54.2 Paid                 4         NA
##  7     7     7    99       0.793       80.9 Unpaid              12         12
##  8     8     8    12       1.17       119.  Paid                 8         NA
##  9     9     9     9       0.455       46.4 Unpaid              11         11
## 10    10    10     1       1.70       173.  Did not t…          NA         NA
## # … with 1,053 more rows, and 14 more variables: unpaid_leave_weeks <dbl>,
## #   pct_unpaid <dbl>, partner <chr>, education <chr>, race <chr>,
## #   job_type <chr>, unemploy_reason <chr>, food_insecurity <dbl>,
## #   family_income <chr>, zipcode <chr>, postpartum_check <chr>, borough <chr>,
## #   neighborhood <chr>, pred <dbl>
…
